# tags (before "\t") and build arguments (after "\t", separated by " " which cannot be utilised otherwise) of the Docker image variants to build
# for versions, see https://kafka.apache.org/downloads
# Kafka 0.10
0.10.2.1-scala2.10	KAFKA_VERSION=0.10.2.1 SCALA_VERSION=2.10
0.10.2.1-scala2.11	KAFKA_VERSION=0.10.2.1 SCALA_VERSION=2.11
0.10.2.1-scala2.12	KAFKA_VERSION=0.10.2.1 SCALA_VERSION=2.12
# Kafka 0.11
0.11.0.2-scala2.11	KAFKA_VERSION=0.11.0.2 SCALA_VERSION=2.11
0.11.0.2-scala2.12	KAFKA_VERSION=0.11.0.2 SCALA_VERSION=2.12
# Kafka 1.0
1.0.2-scala2.11	KAFKA_VERSION=1.0.2 SCALA_VERSION=2.11
1.0.2-scala2.12	KAFKA_VERSION=1.0.2 SCALA_VERSION=2.12
# Kafka 1.1
1.1.1-scala2.11	KAFKA_VERSION=1.1.1 SCALA_VERSION=2.11
1.1.1-scala2.12	KAFKA_VERSION=1.1.1 SCALA_VERSION=2.12
# Kafka 2.0
2.0.1-scala2.11	KAFKA_VERSION=2.0.1 SCALA_VERSION=2.11
2.0.1-scala2.12	KAFKA_VERSION=2.0.1 SCALA_VERSION=2.12
# Kafka 2.1
2.1.1-scala2.11	KAFKA_VERSION=2.1.1 SCALA_VERSION=2.11
2.1.1-scala2.12	KAFKA_VERSION=2.1.1 SCALA_VERSION=2.12
# Kafka 2.2
2.2.1-scala2.11	KAFKA_VERSION=2.2.1 SCALA_VERSION=2.11
2.2.1-scala2.12	KAFKA_VERSION=2.2.1 SCALA_VERSION=2.12
# Kafka 2.3
2.3.0-scala2.11	KAFKA_VERSION=2.3.0 SCALA_VERSION=2.11
2.3.0-scala2.12	KAFKA_VERSION=2.3.0 SCALA_VERSION=2.12
